Rachel’s Website - The Last of Us Walkthrough
…
Cool, now we know of the 71 original reviews, 19 of them came two weeks after the game came out. Let’s say the next thing you want to know, specifically from the reviews on July 28, is how many of them gave the movie a perfect score.

There are a couple ways to go about this, but let’s start with one that pulls from our original data set.

First, we’ll want to use the group_by function to pull from the July 28 date.

last_of_us_reviews %>% 
  group_by(date == "2014-07-28")

# A tibble: 70 × 5
# Groups:   date == "2014-07-28" [2]
   id                   review                date  score `date == "2014-07-28"`
   <chr>                <chr>                 <chr> <int> <lgl>                 
 1 "Cubed3"             A post-apocalyptic r… 2020…    90 FALSE                 
 2 ""                   Visual improvements … 2014…    80 FALSE                 
 3 ""                   One of the best titl… 2014…   100 FALSE                 
 4 ""                   For the most part, t… 2014…   100 FALSE                 
 5 "Eurogamer Portugal" The Last of Us is on… 2014…   100 FALSE                 
 6 ""                   PlayStation 4 makes … 2014…    90 FALSE                 
 7 ""                   A refreshed classic … 2014…   100 FALSE                 
 8 ""                   A touch less impactf… 2014…    92 FALSE                 
 9 "Softpedia"          Naughty Dog worked h… 2014…    95 FALSE                 
10 ""                   It's the best versio… 2014…    94 FALSE                 
# ℹ 60 more rows

From there, we’ll filter for how many get a score of 100.

last_of_us_reviews %>% 
  group_by(date == "2014-07-28") %>% 
  filter(score == "100")

# A tibble: 30 × 5
# Groups:   date == "2014-07-28" [2]
   id                    review               date  score `date == "2014-07-28"`
   <chr>                 <chr>                <chr> <int> <lgl>                 
 1 ""                    One of the best tit… 2014…   100 FALSE                 
 2 ""                    For the most part, … 2014…   100 FALSE                 
 3 "Eurogamer Portugal"  The Last of Us is o… 2014…   100 FALSE                 
 4 ""                    A refreshed classic… 2014…   100 FALSE                 
 5 "Telegraph"           That the action in … 2014…   100 FALSE                 
 6 "CalmDownTom"         Not only is The Las… 2014…   100 FALSE                 
 7 "The Digital Fix"     The Last Of Us Rema… 2014…   100 FALSE                 
 8 "Gamereactor Denmark" Even if the Remaste… 2014…   100 FALSE                 
 9 "DarkZero"            If you have yet to … 2014…   100 FALSE                 
10 "Impulsegamer"        The Last of Us Rema… 2014…   100 FALSE                 
# ℹ 20 more rows
…
